{
  "bytecode_size": 1534,
  "local_events": [
    {
      "button.backward": "Backward button status changed"
    },
    {
      "button.left": "Left button status changed"
    },
    {
      "button.center": "Center button status changed"
    },
    {
      "button.forward": "Forward button status changed"
    },
    {
      "button.right": "Right button status changed"
    },
    {
      "buttons": "Buttons values updated"
    },
    {
      "prox": "Proximity values updated"
    },
    {
      "prox.comm": "Data received on the proximity communication"
    },
    {
      "tap": "A tap is detected"
    },
    {
      "acc": "Accelerometer values updated"
    },
    {
      "mic": "Fired when microphone intensity is above threshold"
    },
    {
      "sound.finished": "Fired when the playback of a user initiated sound is finished"
    },
    {
      "temperature": "Temperature value updated"
    },
    {
      "rc5": "RC5 message received"
    },
    {
      "motor": "Motor timer"
    },
    {
      "timer0": "Timer 0"
    },
    {
      "timer1": "Timer 1"
    }
  ],
  "name": "thymio-II",
  "named_variables": [
    {
      "_id": 1
    },
    {
      "event.source": 1
    },
    {
      "event.args": 32
    },
    {
      "_fwversion": 2
    },
    {
      "_productId": 1
    },
    {
      "buttons._raw": 5
    },
    {
      "button.backward": 1
    },
    {
      "button.left": 1
    },
    {
      "button.center": 1
    },
    {
      "button.forward": 1
    },
    {
      "button.right": 1
    },
    {
      "buttons._mean": 5
    },
    {
      "buttons._noise": 5
    },
    {
      "prox.horizontal": 7
    },
    {
      "prox.comm.rx._payloads": 7
    },
    {
      "prox.comm.rx._intensities": 7
    },
    {
      "prox.comm.rx": 1
    },
    {
      "prox.comm.tx": 1
    },
    {
      "prox.ground.ambiant": 2
    },
    {
      "prox.ground.reflected": 2
    },
    {
      "prox.ground.delta": 2
    },
    {
      "motor.left.target": 1
    },
    {
      "motor.right.target": 1
    },
    {
      "_vbat": 2
    },
    {
      "_imot": 2
    },
    {
      "motor.left.speed": 1
    },
    {
      "motor.right.speed": 1
    },
    {
      "motor.left.pwm": 1
    },
    {
      "motor.right.pwm": 1
    },
    {
      "acc": 3
    },
    {
      "temperature": 1
    },
    {
      "rc5.address": 1
    },
    {
      "rc5.command": 1
    },
    {
      "mic.intensity": 1
    },
    {
      "mic.threshold": 1
    },
    {
      "mic._mean": 1
    },
    {
      "timer.period": 2
    },
    {
      "acc._tap": 1
    }
  ],
  "native_functions": [
    {
      "_system.reboot": [
        "Reboot the microcontroller",
        []
      ]
    },
    {
      "_system.settings.read": [
        "Read a setting",
        [
          {
            "address": 1
          },
          {
            "value": 1
          }
        ]
      ]
    },
    {
      "_system.settings.write": [
        "Write a setting",
        [
          {
            "address": 1
          },
          {
            "value": 1
          }
        ]
      ]
    },
    {
      "_system.settings.flash": [
        "Write the settings into flash",
        []
      ]
    },
    {
      "math.copy": [
        "copies src to dest element by element",
        [
          {
            "dest": 65535
          },
          {
            "src": 65535
          }
        ]
      ]
    },
    {
      "math.fill": [
        "fills dest with constant value",
        [
          {
            "dest": 65535
          },
          {
            "value": 1
          }
        ]
      ]
    },
    {
      "math.addscalar": [
        "add scalar to each element of src and store result to dest",
        [
          {
            "dest": 65535
          },
          {
            "src": 65535
          },
          {
            "scalar": 1
          }
        ]
      ]
    },
    {
      "math.add": [
        "adds src1 and src2 to dest, element by element",
        [
          {
            "dest": 65535
          },
          {
            "src1": 65535
          },
          {
            "src2": 65535
          }
        ]
      ]
    },
    {
      "math.sub": [
        "substracts src2 from src1 to dest, element by element",
        [
          {
            "dest": 65535
          },
          {
            "src1": 65535
          },
          {
            "src2": 65535
          }
        ]
      ]
    },
    {
      "math.mul": [
        "multiplies src1 and src2 to dest, element by element",
        [
          {
            "dest": 65535
          },
          {
            "src1": 65535
          },
          {
            "src2": 65535
          }
        ]
      ]
    },
    {
      "math.div": [
        "divides src1 by src2 to dest, element by element",
        [
          {
            "dest": 65535
          },
          {
            "src1": 65535
          },
          {
            "src2": 65535
          }
        ]
      ]
    },
    {
      "math.min": [
        "writes the minimum of src1 and src2 to dest, element by element",
        [
          {
            "dest": 65535
          },
          {
            "src1": 65535
          },
          {
            "src2": 65535
          }
        ]
      ]
    },
    {
      "math.max": [
        "writes the maximum of src1 and src2 to dest, element by element",
        [
          {
            "dest": 65535
          },
          {
            "src1": 65535
          },
          {
            "src2": 65535
          }
        ]
      ]
    },
    {
      "math.clamp": [
        "clamp src to low/high bounds into dest, element by element",
        [
          {
            "dest": 65535
          },
          {
            "src": 65535
          },
          {
            "low": 65535
          },
          {
            "high": 65535
          }
        ]
      ]
    },
    {
      "math.dot": [
        "writes the dot product of src1 and src2 to dest, after a shift",
        [
          {
            "dest": 1
          },
          {
            "src1": 65535
          },
          {
            "src2": 65535
          },
          {
            "shift": 1
          }
        ]
      ]
    },
    {
      "math.stat": [
        "performs statistics on src",
        [
          {
            "src": 65535
          },
          {
            "min": 1
          },
          {
            "max": 1
          },
          {
            "mean": 1
          }
        ]
      ]
    },
    {
      "math.argbounds": [
        "get the indices (argmin, argmax) of the limit values of src",
        [
          {
            "src": 65535
          },
          {
            "argmin": 1
          },
          {
            "argmax": 1
          }
        ]
      ]
    },
    {
      "math.sort": [
        "sort array in place",
        [
          {
            "array": 65535
          }
        ]
      ]
    },
    {
      "math.muldiv": [
        "performs dest = (a*b)/c in 32 bits element by element",
        [
          {
            "dest": 65535
          },
          {
            "a": 65535
          },
          {
            "b": 65535
          },
          {
            "c": 65535
          }
        ]
      ]
    },
    {
      "math.atan2": [
        "performs dest = atan2(y,x) element by element",
        [
          {
            "dest": 65535
          },
          {
            "y": 65535
          },
          {
            "x": 65535
          }
        ]
      ]
    },
    {
      "math.sin": [
        "performs dest = sin(x) element by element",
        [
          {
            "dest": 65535
          },
          {
            "x": 65535
          }
        ]
      ]
    },
    {
      "math.cos": [
        "performs dest = cos(x) element by element",
        [
          {
            "dest": 65535
          },
          {
            "x": 65535
          }
        ]
      ]
    },
    {
      "math.rot2": [
        "rotates v of angle a to dest",
        [
          {
            "dest": 2
          },
          {
            "v": 2
          },
          {
            "a": 1
          }
        ]
      ]
    },
    {
      "math.sqrt": [
        "performs dest = sqrt(x) element by element",
        [
          {
            "dest": 65535
          },
          {
            "x": 65535
          }
        ]
      ]
    },
    {
      "math.rand": [
        "fill array with random values",
        [
          {
            "dest": 65535
          }
        ]
      ]
    },
    {
      "_leds.set": [
        "Set the led",
        [
          {
            "led": 1
          },
          {
            "brightness": 1
          }
        ]
      ]
    },
    {
      "sound.record": [
        "Start recording of rN.wav",
        [
          {
            "N": 1
          }
        ]
      ]
    },
    {
      "sound.play": [
        "Start playback of pN.wav",
        [
          {
            "N": 1
          }
        ]
      ]
    },
    {
      "sound.replay": [
        "Start playback of rN.wav",
        [
          {
            "N": 1
          }
        ]
      ]
    },
    {
      "sound.system": [
        "Start playback of system sound N",
        [
          {
            "N": 1
          }
        ]
      ]
    },
    {
      "leds.circle": [
        "Set circular ring leds",
        [
          {
            "l0": 1
          },
          {
            "l1": 1
          },
          {
            "l2": 1
          },
          {
            "l3": 1
          },
          {
            "l4": 1
          },
          {
            "l5": 1
          },
          {
            "l6": 1
          },
          {
            "l7": 1
          }
        ]
      ]
    },
    {
      "leds.top": [
        "Set RGB top led",
        [
          {
            "red": 1
          },
          {
            "green": 1
          },
          {
            "blue": 1
          }
        ]
      ]
    },
    {
      "leds.bottom.left": [
        "Set RGB botom left led",
        [
          {
            "red": 1
          },
          {
            "green": 1
          },
          {
            "blue": 1
          }
        ]
      ]
    },
    {
      "leds.bottom.right": [
        "Set RGB botom right led",
        [
          {
            "red": 1
          },
          {
            "green": 1
          },
          {
            "blue": 1
          }
        ]
      ]
    },
    {
      "sound.freq": [
        "Play frequency",
        [
          {
            "Hz": 1
          },
          {
            "ds": 1
          }
        ]
      ]
    },
    {
      "leds.buttons": [
        "Set buttons leds",
        [
          {
            "l0": 1
          },
          {
            "l1": 1
          },
          {
            "l2": 1
          },
          {
            "l3": 1
          }
        ]
      ]
    },
    {
      "leds.prox.h": [
        "Set horizontal proximity leds",
        [
          {
            "l0": 1
          },
          {
            "l1": 1
          },
          {
            "l2": 1
          },
          {
            "l3": 1
          },
          {
            "l4": 1
          },
          {
            "l5": 1
          },
          {
            "l6": 1
          },
          {
            "l7": 1
          }
        ]
      ]
    },
    {
      "leds.prox.v": [
        "Set vertical proximity leds",
        [
          {
            "l0": 1
          },
          {
            "l1": 1
          }
        ]
      ]
    },
    {
      "leds.rc": [
        "Set rc led",
        [
          {
            "led": 1
          }
        ]
      ]
    },
    {
      "leds.sound": [
        "Set sound led",
        [
          {
            "led": 1
          }
        ]
      ]
    },
    {
      "leds.temperature": [
        "Set ntc led",
        [
          {
            "red": 1
          },
          {
            "blue": 1
          }
        ]
      ]
    },
    {
      "sound.wave": [
        "Set the primary wave of the tone generator",
        [
          {
            "wave": 142
          }
        ]
      ]
    },
    {
      "prox.comm.enable": [
        "Enable or disable the proximity communication",
        [
          {
            "state": 1
          }
        ]
      ]
    },
    {
      "sd.open": [
        "Open a file on the SD card",
        [
          {
            "number": 1
          },
          {
            "status": 1
          }
        ]
      ]
    },
    {
      "sd.write": [
        "Write data to the opened file",
        [
          {
            "data": 65535
          },
          {
            "written": 1
          }
        ]
      ]
    },
    {
      "sd.read": [
        "Read data from the opened file",
        [
          {
            "data": 65535
          },
          {
            "read": 1
          }
        ]
      ]
    },
    {
      "sd.seek": [
        "Seek the opened file",
        [
          {
            "position": 1
          },
          {
            "status": 1
          }
        ]
      ]
    },
    {
      "_rf.nodeid": [
        "Set Wireless Node ID",
        [
          {
            "nodeID": 1
          }
        ]
      ]
    },
    {
      "_poweroff": [
        "Poweroff",
        []
      ]
    }
  ],
  "protocol_version": 5,
  "signature": "d6cddb677f1770bdf845a67d275f576712affbaf8c410993bf76718b98f26ea6",
  "stacksize": 32,
  "variables_size": 620
}